<svg width="657" height="520" viewBox="0 0 657 520" fill="none" xmlns="http://www.w3.org/2000/svg">
<g filter="url(#filter0_d)">
<path d="M4 6.99999C4 3.134 7.13401 0 11 0H646C649.866 0 653 3.13401 653 7V482.469C653 484.104 652.427 485.688 651.381 486.946L633.418 508.533C630.62 511.897 625.455 511.897 622.657 508.533L608.456 491.467C605.657 488.103 600.493 488.103 597.694 491.467L583.493 508.533C580.695 511.897 575.53 511.897 572.732 508.533L558.531 491.467C555.732 488.103 550.568 488.103 547.769 491.467L533.568 508.533C530.77 511.897 525.605 511.897 522.807 508.533L508.606 491.467C505.807 488.103 500.643 488.103 497.844 491.467L483.643 508.533C480.845 511.897 475.68 511.897 472.882 508.533L458.677 491.462C455.879 488.1 450.718 488.098 447.918 491.458L433.678 508.547C430.879 511.905 425.721 511.905 422.922 508.547L408.678 491.453C405.879 488.095 400.721 488.095 397.922 491.453L383.678 508.547C380.879 511.905 375.721 511.905 372.922 508.547L358.699 491.479C355.893 488.112 350.719 488.122 347.926 491.5L333.852 508.526C331.067 511.895 325.909 511.915 323.097 508.568L308.703 491.432C305.891 488.085 300.733 488.105 297.948 491.474L283.852 508.526C281.067 511.895 275.909 511.915 273.097 508.568L258.703 491.432C255.891 488.085 250.733 488.105 247.948 491.474L233.852 508.526C231.067 511.895 225.909 511.915 223.097 508.568L208.703 491.432C205.891 488.085 200.733 488.105 197.948 491.474L183.852 508.526C181.067 511.895 175.909 511.915 173.097 508.568L158.703 491.432C155.891 488.085 150.733 488.105 147.948 491.474L133.852 508.526C131.067 511.895 125.909 511.915 123.097 508.568L108.703 491.432C105.891 488.085 100.733 488.105 97.9478 491.474L83.8522 508.526C81.0668 511.895 75.9088 511.915 73.097 508.568L58.703 491.432C55.8912 488.085 50.7332 488.105 47.9478 491.474L33.9281 508.434C31.1177 511.833 25.9013 511.818 23.1112 508.401L5.57828 486.933C4.55755 485.683 4 484.119 4 482.505V6.99999Z" fill="white"/>
</g>
<defs>
<filter id="filter0_d" x="0" y="0" width="657" height="519.066" filterUnits="userSpaceOnUse" color-interpolation-filters="sRGB">
<feFlood flood-opacity="0" result="BackgroundImageFix"/>
<feColorMatrix in="SourceAlpha" type="matrix" values="0 0 0 0 0 0 0 0 0 0 0 0 0 0 0 0 0 0 127 0"/>
<feOffset dy="4"/>
<feGaussianBlur stdDeviation="2"/>
<feColorMatrix type="matrix" values="0 0 0 0 0 0 0 0 0 0 0 0 0 0 0 0 0 0 0.25 0"/>
<feBlend mode="normal" in2="BackgroundImageFix" result="effect1_dropShadow"/>
<feBlend mode="normal" in="SourceGraphic" in2="effect1_dropShadow" result="shape"/>
</filter>
</defs>
</svg>
