<svg xmlns="http://www.w3.org/2000/svg" viewBox="0 0 64 64" aria-labelledby="title"
aria-describedby="desc" role="img" width="18" height="18" xmlns:xlink="http://www.w3.org/1999/xlink">
  <title>Priority Warning</title>
  <desc>A line styled icon from Orion Icon Library.</desc>
  <circle data-name="layer2"
  cx="32" cy="32" r="30" fill="none" stroke="#000000" stroke-miterlimit="10"
  stroke-width="4" stroke-linejoin="round" stroke-linecap="round"></circle>
  <path data-name="layer1" fill="none" stroke="#000000" stroke-miterlimit="10"
  stroke-width="4" d="M32 15v24" stroke-linejoin="round" stroke-linecap="round"></path>
  <circle data-name="layer1" cx="32" cy="47" r="2" fill="none" stroke="#000000"
  stroke-miterlimit="10" stroke-width="4" stroke-linejoin="round" stroke-linecap="round"></circle>
</svg>